#!/usr/bin/python3
#-*- coding: utf-8 -*-
#===============================================================================
#           File :
#          Usage :
#         Author : Antoine Lefebvre-Brossard
#  Creation Date :
#  Last Modified :
#===============================================================================
